experiment = {num_iter: 200 num_cand: 7
biv:   2000 col_r:0.5 alpha: 200 beta:  100
ki:  10000 klr:0.5 }
# occurrences hcro lost first place to heft:191
# occurrences hcro lost first place to cpop: 71
# occurrences hcro eq   first place to heft:  0
# occurrences hcro eq   first place to cpop:2652
experiment = {num_iter: 100 num_cand: 7
biv:   2000 col_r:0.5 alpha: 200 beta:  100
ki:  10000 klr:0.5 }
ct:50 cp:4 avg_time(s):0.0389812
ct:50 cp:9 avg_time(s):0.0706853
ct:50 cp:14 avg_time(s):0.0979879
ct:50 cp:19 avg_time(s):0.128945
ct:50 cp:24 avg_time(s):0.155529
ct:100 cp:4 avg_time(s):0.109239
ct:100 cp:9 avg_time(s):0.210802
ct:100 cp:14 avg_time(s):0.308887
ct:100 cp:19 avg_time(s):0.416342
ct:100 cp:24 avg_time(s):0.527784
ct:100 cp:29 avg_time(s):0.618676
ct:150 cp:4 avg_time(s):0.2256
ct:150 cp:9 avg_time(s):0.44824
ct:150 cp:14 avg_time(s):0.657224
ct:150 cp:19 avg_time(s):0.873024
ct:150 cp:24 avg_time(s):1.11647
ct:150 cp:29 avg_time(s):1.37295
ct:200 cp:4 avg_time(s):0.394848
ct:200 cp:9 avg_time(s):0.778828
ct:200 cp:14 avg_time(s):1.14487
ct:200 cp:19 avg_time(s):1.53084
ct:200 cp:24 avg_time(s):1.89736
ct:200 cp:29 avg_time(s):2.16816
ct:250 cp:4 avg_time(s):0.542188
ct:250 cp:9 avg_time(s):1.11775
ct:250 cp:14 avg_time(s):1.63734
ct:250 cp:19 avg_time(s):2.27953
ct:250 cp:24 avg_time(s):2.79014
ct:250 cp:29 avg_time(s):3.25401
ct:300 cp:4 avg_time(s):0.759389
ct:300 cp:9 avg_time(s):1.60758
ct:300 cp:14 avg_time(s):2.39331
ct:300 cp:19 avg_time(s):3.21255
ct:300 cp:24 avg_time(s):3.92363
ct:300 cp:29 avg_time(s):4.41732
# occurrences hcro lost first place to heft:201
# occurrences hcro lost first place to cpop: 91
# occurrences hcro eq   first place to heft:  0
# occurrences hcro eq   first place to cpop:3069
experiment = {num_iter:  50 num_cand: 7
biv:   2000 col_r:0.5 alpha: 200 beta:  100
ki:  10000 klr:0.5 }
ct:50 cp:4 avg_time(s):0.0261559
ct:50 cp:9 avg_time(s):0.0481727
ct:50 cp:14 avg_time(s):0.0692088
ct:50 cp:19 avg_time(s):0.0897976
ct:50 cp:24 avg_time(s):0.108779
ct:100 cp:4 avg_time(s):0.0767116
ct:100 cp:9 avg_time(s):0.147569
ct:100 cp:14 avg_time(s):0.217073
ct:100 cp:19 avg_time(s):0.300053
ct:100 cp:24 avg_time(s):0.368709
ct:100 cp:29 avg_time(s):0.443625
ct:150 cp:4 avg_time(s):0.154627
ct:150 cp:9 avg_time(s):0.315027
ct:150 cp:14 avg_time(s):0.469618
ct:150 cp:19 avg_time(s):0.620926
ct:150 cp:24 avg_time(s):0.797347
ct:150 cp:29 avg_time(s):0.986363
ct:200 cp:4 avg_time(s):0.268353
ct:200 cp:9 avg_time(s):0.554393
ct:200 cp:14 avg_time(s):0.836528
ct:200 cp:19 avg_time(s):1.08277
ct:200 cp:24 avg_time(s):1.32082
ct:200 cp:29 avg_time(s):1.5986
ct:250 cp:4 avg_time(s):0.391481
ct:250 cp:9 avg_time(s):0.805462
ct:250 cp:14 avg_time(s):1.22276
ct:250 cp:19 avg_time(s):1.63298
ct:250 cp:24 avg_time(s):1.97621
ct:250 cp:29 avg_time(s):2.36174
ct:300 cp:4 avg_time(s):0.535426
ct:300 cp:9 avg_time(s):1.09276
ct:300 cp:14 avg_time(s):1.66449
ct:300 cp:19 avg_time(s):2.19904
ct:300 cp:24 avg_time(s):2.6254
ct:300 cp:29 avg_time(s):2.99179
# occurrences hcro lost first place to heft:183
# occurrences hcro lost first place to cpop: 87
# occurrences hcro eq   first place to heft:  0
# occurrences hcro eq   first place to cpop:3618
experiment = {num_iter: 200 num_cand: 7
biv:   2000 col_r:0.5 alpha: 200 beta:  100
ki:  10000 klr:0.5 }
ct:50 cp:4 avg_time(s):0.0648163
ct:50 cp:9 avg_time(s):0.115435
ct:50 cp:14 avg_time(s):0.162636
ct:50 cp:19 avg_time(s):0.206919
ct:50 cp:24 avg_time(s):0.256918
ct:100 cp:4 avg_time(s):0.182255
ct:100 cp:9 avg_time(s):0.34442
ct:100 cp:14 avg_time(s):0.499512
ct:100 cp:19 avg_time(s):0.652848
ct:100 cp:24 avg_time(s):0.806558
ct:100 cp:29 avg_time(s):0.961531
ct:150 cp:4 avg_time(s):0.357961
ct:150 cp:9 avg_time(s):0.709435
ct:150 cp:14 avg_time(s):1.05405
ct:150 cp:19 avg_time(s):1.40271
ct:150 cp:24 avg_time(s):1.74559
ct:150 cp:29 avg_time(s):2.08657
ct:200 cp:4 avg_time(s):0.60808
ct:200 cp:9 avg_time(s):1.21288
ct:200 cp:14 avg_time(s):1.7979
ct:200 cp:19 avg_time(s):2.37888
ct:200 cp:24 avg_time(s):2.95089
ct:200 cp:29 avg_time(s):3.51894
ct:250 cp:4 avg_time(s):0.896679
ct:250 cp:9 avg_time(s):1.80886
ct:250 cp:14 avg_time(s):2.70794
ct:250 cp:19 avg_time(s):3.57514
ct:250 cp:24 avg_time(s):4.46403
ct:250 cp:29 avg_time(s):5.32203
ct:300 cp:4 avg_time(s):1.2379
ct:300 cp:9 avg_time(s):2.52071
ct:300 cp:14 avg_time(s):3.77427
ct:300 cp:19 avg_time(s):5.02854
ct:300 cp:24 avg_time(s):6.16716
ct:300 cp:29 avg_time(s):7.4945
# occurrences hcro lost first place to heft:176
# occurrences hcro lost first place to cpop: 87
# occurrences hcro eq   first place to heft:  0
# occurrences hcro eq   first place to cpop:2591
experiment = {num_iter:  50 num_cand: 3
biv:   2000 col_r:0.5 alpha: 200 beta:  100
ki:  10000 klr:0.5 }
ct:50 cp:4 avg_time(s):0.0258094
ct:50 cp:9 avg_time(s):0.0468084
ct:50 cp:14 avg_time(s):0.0670545
ct:50 cp:19 avg_time(s):0.0865927
ct:50 cp:24 avg_time(s):0.104997
ct:100 cp:4 avg_time(s):0.0731924
ct:100 cp:9 avg_time(s):0.142861
ct:100 cp:14 avg_time(s):0.208315
ct:100 cp:19 avg_time(s):0.284149
ct:100 cp:24 avg_time(s):0.357395
ct:100 cp:29 avg_time(s):0.423666
ct:150 cp:4 avg_time(s):0.149654
ct:150 cp:9 avg_time(s):0.305404
ct:150 cp:14 avg_time(s):0.450883
ct:150 cp:19 avg_time(s):0.594998
ct:150 cp:24 avg_time(s):0.736132
ct:150 cp:29 avg_time(s):0.876144
ct:200 cp:4 avg_time(s):0.243397
ct:200 cp:9 avg_time(s):0.496408
ct:200 cp:14 avg_time(s):0.753834
ct:200 cp:19 avg_time(s):0.995072
ct:200 cp:24 avg_time(s):1.24044
ct:200 cp:29 avg_time(s):1.48093
ct:250 cp:4 avg_time(s):0.364433
ct:250 cp:9 avg_time(s):0.755487
ct:250 cp:14 avg_time(s):1.11748
ct:250 cp:19 avg_time(s):1.51342
ct:250 cp:24 avg_time(s):1.87339
ct:250 cp:29 avg_time(s):2.25551
ct:300 cp:4 avg_time(s):0.511556
ct:300 cp:9 avg_time(s):1.05181
ct:300 cp:14 avg_time(s):1.58539
ct:300 cp:19 avg_time(s):2.12083
ct:300 cp:24 avg_time(s):2.62661
ct:300 cp:29 avg_time(s):3.16078
# occurrences hcro lost first place to heft:169
# occurrences hcro lost first place to cpop: 99
# occurrences hcro eq   first place to heft:  0
# occurrences hcro eq   first place to cpop:3666
experiment = {num_iter:  50 num_cand: 5
biv:   2000 col_r:0.5 alpha: 200 beta:  100
ki:  10000 klr:0.5 }
ct:50 cp:4 avg_time(s):0.0260848
ct:50 cp:9 avg_time(s):0.0469087
ct:50 cp:14 avg_time(s):0.0670836
ct:50 cp:19 avg_time(s):0.0860303
ct:50 cp:24 avg_time(s):0.104974
ct:100 cp:4 avg_time(s):0.0735621
ct:100 cp:9 avg_time(s):0.142651
ct:100 cp:14 avg_time(s):0.208434
ct:100 cp:19 avg_time(s):0.280008
ct:100 cp:24 avg_time(s):0.350086
ct:100 cp:29 avg_time(s):0.426732
ct:150 cp:4 avg_time(s):0.152887
ct:150 cp:9 avg_time(s):0.303823
ct:150 cp:14 avg_time(s):0.452476
ct:150 cp:19 avg_time(s):0.593052
ct:150 cp:24 avg_time(s):0.721202
ct:150 cp:29 avg_time(s):0.864159
ct:200 cp:4 avg_time(s):0.241925
ct:200 cp:9 avg_time(s):0.495119
ct:200 cp:14 avg_time(s):0.751492
ct:200 cp:19 avg_time(s):1.00037
ct:200 cp:24 avg_time(s):1.2368
ct:200 cp:29 avg_time(s):1.47985
ct:250 cp:4 avg_time(s):0.367021
ct:250 cp:9 avg_time(s):0.745423
ct:250 cp:14 avg_time(s):1.1286
ct:250 cp:19 avg_time(s):1.49324
ct:250 cp:24 avg_time(s):1.84207
ct:250 cp:29 avg_time(s):2.25083
ct:300 cp:4 avg_time(s):0.497448
ct:300 cp:9 avg_time(s):1.05334
ct:300 cp:14 avg_time(s):1.5939
ct:300 cp:19 avg_time(s):2.10639
ct:300 cp:24 avg_time(s):2.6313
ct:300 cp:29 avg_time(s):3.16058
# occurrences hcro lost first place to heft:184
# occurrences hcro lost first place to cpop: 77
# occurrences hcro eq   first place to heft:  0
# occurrences hcro eq   first place to cpop:3704
experiment = {num_iter:  50 num_cand: 7
biv:   1000 col_r:0.5 alpha: 200 beta:  100
ki:  10000 klr:0.5 }
ct:50 cp:4 avg_time(s):0.0260563
ct:50 cp:9 avg_time(s):0.0473527
ct:50 cp:14 avg_time(s):0.0675594
ct:50 cp:19 avg_time(s):0.0864541
ct:50 cp:24 avg_time(s):0.106836
ct:100 cp:4 avg_time(s):0.074467
ct:100 cp:9 avg_time(s):0.143965
ct:100 cp:14 avg_time(s):0.209931
ct:100 cp:19 avg_time(s):0.274419
ct:100 cp:24 avg_time(s):0.337436
ct:100 cp:29 avg_time(s):0.399846
ct:150 cp:4 avg_time(s):0.142956
ct:150 cp:9 avg_time(s):0.284712
ct:150 cp:14 avg_time(s):0.424037
ct:150 cp:19 avg_time(s):0.571181
ct:150 cp:24 avg_time(s):0.713685
ct:150 cp:29 avg_time(s):0.858916
ct:200 cp:4 avg_time(s):0.245443
ct:200 cp:9 avg_time(s):0.496263
ct:200 cp:14 avg_time(s):0.741169
ct:200 cp:19 avg_time(s):0.957437
ct:200 cp:24 avg_time(s):1.16247
ct:200 cp:29 avg_time(s):1.38802
ct:250 cp:4 avg_time(s):0.346942
ct:250 cp:9 avg_time(s):0.708008
ct:250 cp:14 avg_time(s):1.05879
ct:250 cp:19 avg_time(s):1.41264
ct:250 cp:24 avg_time(s):1.76131
ct:250 cp:29 avg_time(s):2.0964
ct:300 cp:4 avg_time(s):0.481326
ct:300 cp:9 avg_time(s):0.982004
ct:300 cp:14 avg_time(s):1.4874
ct:300 cp:19 avg_time(s):1.97953
ct:300 cp:24 avg_time(s):2.46711
ct:300 cp:29 avg_time(s):2.95993
# occurrences hcro lost first place to heft:181
# occurrences hcro lost first place to cpop: 79
# occurrences hcro eq   first place to heft:  0
# occurrences hcro eq   first place to cpop:3677
experiment = {num_iter: 100 num_cand: 7
biv:   1000 col_r:0.5 alpha: 200 beta:  100
ki:  10000 klr:0.5 }
ct:50 cp:4 avg_time(s):0.0389234
ct:50 cp:9 avg_time(s):0.0709898
ct:50 cp:14 avg_time(s):0.10086
ct:50 cp:19 avg_time(s):0.13017
ct:50 cp:24 avg_time(s):0.155653
ct:100 cp:4 avg_time(s):0.110851
ct:100 cp:9 avg_time(s):0.213449
ct:100 cp:14 avg_time(s):0.309502
ct:100 cp:19 avg_time(s):0.403859
ct:100 cp:24 avg_time(s):0.495997
ct:100 cp:29 avg_time(s):0.588729
ct:150 cp:4 avg_time(s):0.214356
ct:150 cp:9 avg_time(s):0.427034
ct:150 cp:14 avg_time(s):0.64465
ct:150 cp:19 avg_time(s):0.848997
ct:150 cp:24 avg_time(s):1.06212
ct:150 cp:29 avg_time(s):1.24667
ct:200 cp:4 avg_time(s):0.35406
ct:200 cp:9 avg_time(s):0.719962
ct:200 cp:14 avg_time(s):1.0682
ct:200 cp:19 avg_time(s):1.41769
ct:200 cp:24 avg_time(s):1.76236
ct:200 cp:29 avg_time(s):2.02925
ct:250 cp:4 avg_time(s):0.508055
ct:250 cp:9 avg_time(s):1.03291
ct:250 cp:14 avg_time(s):1.57167
ct:250 cp:19 avg_time(s):2.08024
ct:250 cp:24 avg_time(s):2.55661
ct:250 cp:29 avg_time(s):3.0728
ct:300 cp:4 avg_time(s):0.729044
ct:300 cp:9 avg_time(s):1.48933
ct:300 cp:14 avg_time(s):2.25298
ct:300 cp:19 avg_time(s):2.99779
ct:300 cp:24 avg_time(s):3.71151
ct:300 cp:29 avg_time(s):4.3108
# occurrences hcro lost first place to heft:189
# occurrences hcro lost first place to cpop: 72
# occurrences hcro eq   first place to heft:  0
# occurrences hcro eq   first place to cpop:3161
experiment = {num_iter: 100 num_cand: 7
biv:   4000 col_r:0.5 alpha: 200 beta:  100
ki:  10000 klr:0.5 }
ct:50 cp:4 avg_time(s):0.03913
ct:50 cp:9 avg_time(s):0.0702557
ct:50 cp:14 avg_time(s):0.10008
ct:50 cp:19 avg_time(s):0.127089
ct:50 cp:24 avg_time(s):0.154927
ct:100 cp:4 avg_time(s):0.110603
ct:100 cp:9 avg_time(s):0.215465
ct:100 cp:14 avg_time(s):0.307889
ct:100 cp:19 avg_time(s):0.399633
ct:100 cp:24 avg_time(s):0.493307
ct:100 cp:29 avg_time(s):0.602061
ct:150 cp:4 avg_time(s):0.211471
ct:150 cp:9 avg_time(s):0.419318
ct:150 cp:14 avg_time(s):0.617398
ct:150 cp:19 avg_time(s):0.814951
ct:150 cp:24 avg_time(s):1.01029
ct:150 cp:29 avg_time(s):1.21345
ct:200 cp:4 avg_time(s):0.352329
ct:200 cp:9 avg_time(s):0.713423
ct:200 cp:14 avg_time(s):1.09027
ct:200 cp:19 avg_time(s):1.42298
ct:200 cp:24 avg_time(s):1.80931
ct:200 cp:29 avg_time(s):2.15179
ct:250 cp:4 avg_time(s):0.542232
ct:250 cp:9 avg_time(s):1.0983
ct:250 cp:14 avg_time(s):1.66181
ct:250 cp:19 avg_time(s):2.16526
ct:250 cp:24 avg_time(s):2.71789
ct:250 cp:29 avg_time(s):3.27564
ct:300 cp:4 avg_time(s):0.759577
ct:300 cp:9 avg_time(s):1.54338
ct:300 cp:14 avg_time(s):2.32293
ct:300 cp:19 avg_time(s):3.08859
ct:300 cp:24 avg_time(s):3.86116
ct:300 cp:29 avg_time(s):4.63268
# occurrences hcro lost first place to heft:166
# occurrences hcro lost first place to cpop: 97
# occurrences hcro eq   first place to heft:  0
# occurrences hcro eq   first place to cpop:3102
experiment = {num_iter: 100 num_cand: 7
biv:   2000 col_r:0.7 alpha: 200 beta:  100
ki:  10000 klr:0.5 }
ct:50 cp:4 avg_time(s):0.044826
ct:50 cp:9 avg_time(s):0.0782533
ct:50 cp:14 avg_time(s):0.113208
ct:50 cp:19 avg_time(s):0.143472
ct:50 cp:24 avg_time(s):0.174316
ct:100 cp:4 avg_time(s):0.126621
ct:100 cp:9 avg_time(s):0.234891
ct:100 cp:14 avg_time(s):0.34704
ct:100 cp:19 avg_time(s):0.447851
ct:100 cp:24 avg_time(s):0.544789
ct:100 cp:29 avg_time(s):0.664439
ct:150 cp:4 avg_time(s):0.249753
ct:150 cp:9 avg_time(s):0.48745
ct:150 cp:14 avg_time(s):0.717034
ct:150 cp:19 avg_time(s):0.948437
ct:150 cp:24 avg_time(s):1.17469
ct:150 cp:29 avg_time(s):1.36647
ct:200 cp:4 avg_time(s):0.380015
ct:200 cp:9 avg_time(s):0.760112
ct:200 cp:14 avg_time(s):1.12657
ct:200 cp:19 avg_time(s):1.48903
ct:200 cp:24 avg_time(s):1.84868
ct:200 cp:29 avg_time(s):2.21343
ct:250 cp:4 avg_time(s):0.561696
ct:250 cp:9 avg_time(s):1.12991
ct:250 cp:14 avg_time(s):1.70083
ct:250 cp:19 avg_time(s):2.2585
ct:250 cp:24 avg_time(s):2.78382
ct:250 cp:29 avg_time(s):3.33468
ct:300 cp:4 avg_time(s):0.7757
ct:300 cp:9 avg_time(s):1.57954
ct:300 cp:14 avg_time(s):2.36312
ct:300 cp:19 avg_time(s):3.26516
ct:300 cp:24 avg_time(s):3.97397
ct:300 cp:29 avg_time(s):4.84443
# occurrences hcro lost first place to heft:216
# occurrences hcro lost first place to cpop: 91
# occurrences hcro eq   first place to heft:  0
# occurrences hcro eq   first place to cpop:3359
experiment = {num_iter: 100 num_cand: 7
biv:   2000 col_r:0.5 alpha: 200 beta:   50
ki:  10000 klr:0.5 }
ct:50 cp:4 avg_time(s):0.0388825
ct:50 cp:9 avg_time(s):0.070894
ct:50 cp:14 avg_time(s):0.0984159
ct:50 cp:19 avg_time(s):0.130074
ct:50 cp:24 avg_time(s):0.153951
ct:100 cp:4 avg_time(s):0.109559
ct:100 cp:9 avg_time(s):0.210326
ct:100 cp:14 avg_time(s):0.305667
ct:100 cp:19 avg_time(s):0.398891
ct:100 cp:24 avg_time(s):0.491702
ct:100 cp:29 avg_time(s):0.580195
ct:150 cp:4 avg_time(s):0.211144
ct:150 cp:9 avg_time(s):0.416947
ct:150 cp:14 avg_time(s):0.61516
ct:150 cp:19 avg_time(s):0.808488
ct:150 cp:24 avg_time(s):1.00129
ct:150 cp:29 avg_time(s):1.1958
ct:200 cp:4 avg_time(s):0.344763
ct:200 cp:9 avg_time(s):0.691641
ct:200 cp:14 avg_time(s):1.02896
ct:200 cp:19 avg_time(s):1.35966
ct:200 cp:24 avg_time(s):1.68829
ct:200 cp:29 avg_time(s):2.02214
ct:250 cp:4 avg_time(s):0.50982
ct:250 cp:9 avg_time(s):1.0334
ct:250 cp:14 avg_time(s):1.54218
ct:250 cp:19 avg_time(s):2.05059
ct:250 cp:24 avg_time(s):2.55386
ct:250 cp:29 avg_time(s):3.05729
ct:300 cp:4 avg_time(s):0.703035
ct:300 cp:9 avg_time(s):1.4439
ct:300 cp:14 avg_time(s):2.16587
ct:300 cp:19 avg_time(s):2.87846
ct:300 cp:24 avg_time(s):3.60036
ct:300 cp:29 avg_time(s):4.34723
# occurrences hcro lost first place to heft:176
# occurrences hcro lost first place to cpop: 83
# occurrences hcro eq   first place to heft:  0
# occurrences hcro eq   first place to cpop:3117
